<svg height="331.29" viewBox="0 0 353.95 331.29" width="353.95" xmlns="http://www.w3.org/2000/svg" xmlns:xlink="http://www.w3.org/1999/xlink">
	<linearGradient id="a" gradientUnits="userSpaceOnUse" x1=".11" x2=".11" y1="29.1" y2="0">
		<stop offset=".0056" stop-color="#89a4b6"/>
		<stop offset=".5" stop-color="#fff"/>
		<stop offset="1" stop-color="#89a4b6"/>
	</linearGradient>
	<linearGradient id="b" gradientTransform="matrix(.35 0 0 1 -116.29 -14.31)" gradientUnits="userSpaceOnUse" x1="334.43" x2="362.36" y1="28.08" y2="28.17">
		<stop offset="0" stop-color="#fff"/>
		<stop offset="1" stop-color="#89a4b6"/>
	</linearGradient>
	<marker id="c" orient="auto" overflow="visible" refX="0" refY="0" transform="translate(144.04 71.47)">
		<path d="m8.72 4.03-10.93-4.01 10.93-4.02c-1.75 2.37-1.74 5.62 0 8.04z" fill="#f00" fill-rule="evenodd" stroke="#f00" stroke-linejoin="round" stroke-width=".63" transform="scale(-.6)"/>
	</marker>
	<radialGradient id="d" cx="9.59" cy="8.25" gradientTransform="matrix(2.71 0 0 2.66 -16.42 -15.83)" gradientUnits="userSpaceOnUse" r="6.75">
		<stop offset="0" stop-color="#fede58"/>
		<stop offset=".6854" stop-color="#ba0000"/>
	</radialGradient>
	<marker id="e" orient="auto" overflow="visible" refX="0" refY="0" transform="translate(144.04 71.47)">
		<path d="m8.72 4.03-10.93-4.01 10.93-4.02c-1.75 2.37-1.74 5.62 0 8.04z" fill="#f00" fill-rule="evenodd" stroke="#f00" stroke-linejoin="round" stroke-width=".63" transform="scale(-.6)"/>
	</marker>
	<g transform="translate(144.04 -157.79)">
		<path d="m.38.38h9.92v28.35h-9.92z" fill="url(#b)" stroke="#000" stroke-width=".75" transform="matrix(.71 .71 -.71 .71 30.41 325.78)"/>
		<text font-family="'Latin Modern Roman'" font-size="12" letter-spacing="0" word-spacing="0" x="-8.85" y="351.87"><tspan font-family="'Latin Modern Sans'" font-size="12" x="-8.85" y="351.87">BS</tspan></text>
		<g fill="none" stroke="#f00" stroke-linecap="round">
			<path d="m-143.54 336.1h76.01" marker-end="url(#c)"/>
			<path d="m20.66 298.31v37.79" stroke-width="2"/>
			<path d="m23.6 347.05-2.94-10.95"/>
			<path d="m31.62 339.04-10.96-2.94" stroke-width="2"/>
			<path d="m23.61 471.4v-124.57"/>
			<path d="m31.62 339.12h31.37" stroke-width="2"/>
		</g>
		<g enable-background="new" transform="translate(-400 -26.73)">
			<path d="m591.5 370.94s-47.24-3.84-63.3-3.84c-16.05 0-63.32 3.84-63.32 3.84v-10.09s47.27 3.84 63.32 3.84 63.3-3.84 63.3-3.84z" fill="#f00"/>
			<g stroke="#000" stroke-width=".75">
				<path d="m8.84.38h-8.36c.76 3.05 1.27 8.25 1.27 14.17s-.51 11.13-1.27 14.17h8.36z" fill="url(#a)" transform="matrix(-1 0 0 -1 468.05 380.22)"/>
				<g enable-background="new" transform="translate(588.33 351.12)">
					<path d="m8.84.38h-8.36c.76 3.05 1.27 8.25 1.27 14.17s-.51 11.13-1.27 14.17h8.36z" fill="url(#a)"/>
					<path d="m7.42.38h2.84v28.35h-2.84z"/>
				</g>
			</g>
		</g>
		<text font-family="'Latin Modern Roman'" font-size="12" letter-spacing="0" word-spacing="0" x="47.96" y="364.01"><tspan font-family="'Latin Modern Sans'" font-size="12" x="47.96" y="364.01">ITMX</tspan></text>
		<text font-family="'Latin Modern Roman'" font-size="12" letter-spacing="0" word-spacing="0" x="176.25" y="364.01"><tspan font-family="'Latin Modern Sans'" font-size="12" x="176.25" y="364.01">ETMX</tspan></text>
		<g enable-background="new" transform="matrix(0 -1 1 0 -345.18 756.76)">
			<path d="m591.5 370.94s-47.24-3.84-63.3-3.84c-16.05 0-63.32 3.84-63.32 3.84v-10.09s47.27 3.84 63.32 3.84 63.3-3.84 63.3-3.84z" fill="#f00"/>
			<g stroke="#000" stroke-width=".75">
				<path d="m8.84.38h-8.36c.76 3.05 1.27 8.25 1.27 14.17s-.51 11.13-1.27 14.17h8.36z" fill="url(#a)" transform="matrix(-1 0 0 -1 468.05 380.22)"/>
				<g enable-background="new" transform="translate(588.33 351.12)">
					<path d="m8.84.38h-8.36c.76 3.05 1.27 8.25 1.27 14.17s-.51 11.13-1.27 14.17h8.36z" fill="url(#a)"/>
					<path d="m7.42.38h2.84v28.35h-2.84z"/>
				</g>
			</g>
		</g>
		<text font-family="'Latin Modern Roman'" font-size="12" letter-spacing="0" word-spacing="0" x="40.9" y="297.48"><tspan font-family="'Latin Modern Sans'" font-size="12" x="40.9" y="297.48">ITMY</tspan></text>
		<text font-family="'Latin Modern Roman'" font-size="12" letter-spacing="0" word-spacing="0" x="40.9" y="166.99"><tspan font-family="'Latin Modern Sans'" font-size="12" x="40.9" y="166.99">ETMY</tspan></text>
		<path d="m8.84.38h-8.36c.76 3.05 1.27 8.25 1.27 14.17s-.51 11.13-1.27 14.17h8.36z" fill="url(#a)" stroke="#000" stroke-width=".75" transform="matrix(0 1 -1 0 38.23 387.5)"/>
		<text font-family="'Latin Modern Roman'" font-size="12" letter-spacing="0" word-spacing="0" x="-18.85" y="396.27"><tspan font-family="'Latin Modern Sans'" font-size="12" x="-18.85" y="396.27">SRM</tspan></text>
		<g enable-background="new" stroke="#000" stroke-width="1.69" transform="matrix(0 .44 -.45 0 28.94 470.37)">
			<path d="m6.04 1.79c-.99 0-1.94.15-2.84.42v19.01c.9.27 1.85.42 2.84.42 5.48 0 9.92-4.44 9.92-9.92s-4.44-9.92-9.92-9.92z" fill="url(#d)"/>
			<path d="m.38.38h2.84v22.68h-2.84z"/>
		</g>
		<text font-family="'Latin Modern Roman'" font-size="12" letter-spacing="0" word-spacing="0" x="-73.6" y="361.44"><tspan font-family="'Latin Modern Sans'" font-size="12" x="-73.6" y="361.44">PRM</tspan></text>
		<path d="m-59.35 336.1h80.52" fill="none" stroke="#f00" stroke-linecap="round" stroke-width="2"/>
		<text font-family="'Latin Modern Roman'" font-size="12" letter-spacing="0" word-spacing="0" x="-133.48" y="331.09"><tspan font-family="'Latin Modern Sans'" font-size="12" x="-133.48" y="331.09">Laser input</tspan></text>
		<path d="m31.61 456.69v-52.09" fill="none" marker-end="url(#e)" stroke="#f00" stroke-dasharray="3 3" stroke-linecap="round"/>
		<text font-family="'Latin Modern Roman'" font-size="12" letter-spacing="0" word-spacing="0" x="37.39" y="433.27"><tspan font-family="'Latin Modern Sans'" font-size="12" x="37.39" y="433.27">Squeezed input</tspan></text>
		<text font-family="'Latin Modern Roman'" font-size="12" letter-spacing="0" word-spacing="0" x="1.66" y="488.95"><tspan font-family="'Latin Modern Sans'" font-size="12" x="1.66" y="488.95">Detector</tspan></text>
		<g stroke="#000" stroke-width=".75">
			<path d="m8.84.38h-8.36c.76 3.05 1.27 8.25 1.27 14.17s-.51 11.13-1.27 14.17h8.36z" fill="url(#a)" transform="matrix(-1 0 0 -1 -56.06 350.65)"/>
			<path d="m.38.38h9.92v28.35h-9.92z" fill="none" transform="matrix(.71 .71 -.71 .71 30.41 325.78)"/>
		</g>
	</g>
</svg>
